{
  "infile": "sourcename.csv",
  "destination": "generated.xml",
  "footprint": "footprints.xml",
  "stack": "stack.xml",
  "rotate": false,
  "board": {
    "height": 100.0,
    "width": 100.0
  },
  "offset": {
    "x": 0,
    "y": 0
  },
  "panel": {
    "rows": 2,
    "cols": 3,
    "spacing": 2.5,
    "pcb": {
      "height": 50,
      "width": 50
    },
    "offset": {
      "x": 9.5,
      "y": 9.5
    }
  }
}
